{
	"waves": [
		{
			"spawns": [
				{
					"spawnPoint": 1,
					"time": 0,
					"enemy": "skelleton",
					"count": 5

				},
								{
					"spawnPoint": 2,
					"time": 0,
					"enemy": "skelleton",
					"count": 5

				}
				,
								{
					"spawnPoint": 3,
					"time": 0,
					"enemy": "skelleton",
					"count": 5

				}
				,
								{
					"spawnPoint": 4,
					"time": 0,
					"enemy": "skelleton",
					"count": 5

				}
				,
								{
					"spawnPoint": 5,
					"time": 0,
					"enemy": "skelleton",
					"count": 5

				}
				,
								{
					"spawnPoint": 0,
					"time": 0,
					"enemy": "skelleton",
					"count": 5

				}
			]
		},
		{

		}
	]
}
