{
	"waves": [
		{
			"spawns": [
				{
					"spawnPoint": 2,
					"time": 0,
					"enemy": "skelleton",
					"count": 5
				},
				{
					"spawnPoint": 3,
					"time": 0,
					"enemy": "skelleton",
					"count": 5
				},
				{
					"spawnPoint": 2,
					"time": 5,
					"enemy": "skelleton",
					"count": 2
				},
				{
					"spawnPoint": 3,
					"time": 5,
					"enemy": "skelleton",
					"count": 5
				}
			]
		},
		{
			"spawns": [
				{
					"spawnPoint": 2,
					"time": 20,
					"enemy": "skelleton",
					"count": 7
				},
				{
					"spawnPoint": 3,
					"time": 20,
					"enemy": "skelleton",
					"count": 7
				},
				{
					"spawnPoint": 1,
					"time": 0,
					"enemy": "skelleton",
					"count": 5
				},
				{
					"spawnPoint": 4,
					"time": 0,
					"enemy": "skelleton",
					"count": 5
				},
				{
					"spawnPoint": 4,
					"time": 50,
					"enemy": "giant",
					"count": 3
				},
				{
					"spawnPoint": 5,
					"time": 50,
					"enemy": "giant",
					"count": 3
				},
				{
					"spawnPoint": 0,
					"time": 80,
					"enemy": "giant",
					"count": 3
				},
				{
					"spawnPoint": 1,
					"time": 80,
					"enemy": "giant",
					"count": 3
				}

			]
		},
		{
			"spawns": [
				{
					"spawnPoint": 0,
					"time": 0,
					"enemy": "giant",
					"count": 3
				},
				{
					"spawnPoint": 5,
					"time": 50,
					"enemy": "giant",
					"count": 3
				},
				{
					"spawnPoint": 1,
					"time": 0,
					"enemy": "skelleton",
					"count": 5
				},
				{
					"spawnPoint": 1,
					"time": 10,
					"enemy": "skelleton",
					"count": 5
				},
				{
					"spawnPoint": 4,
					"time": 50,
					"enemy": "skelleton",
					"count": 5
				},
				{
					"spawnPoint": 2,
					"time": 10,
					"enemy": "skelleton",
					"count": 5
				},
				{
					"spawnPoint": 2,
					"time": 70,
					"enemy": "skelleton",
					"count": 5
				},
				{
					"spawnPoint": 3,
					"time": 70,
					"enemy": "skelleton",
					"count": 5
				}
			]
		}
	]
}
